{
  "development": {
    "username": "postgres",
    "password": "password",
    "database": "comp_7071_assign4",
    "host": "127.0.0.1",
    "dialect": "postgres",
    "operatorsAliases": false,
    "logging": false
  }
}
